{
  "project_info": {
    "project_number": "894572522277",
    "firebase_url": "https://event-time-4833c.firebaseio.com",
    "project_id": "event-time-4833c",
    "storage_bucket": "event-time-4833c.appspot.com"
  },
  "client": [
    {
      "client_info": {
        "mobilesdk_app_id": "1:894572522277:android:552ddbe7eeeacee5",
        "android_client_info": {
          "package_name": "eventime.com.eventtime"
        }
      },
      "oauth_client": [
        {
          "client_id": "894572522277-g5494q2so3minvh05k10dk641b623pj1.apps.googleusercontent.com",
          "client_type": 3
        }
      ],
      "api_key": [
        {
          "current_key": "AIzaSyBtqHSHm8yXBCtl61hwW4MMuTDzxgp0CF4"
        }
      ],
      "services": {
        "analytics_service": {
          "status": 1
        },
        "appinvite_service": {
          "status": 1,
          "other_platform_oauth_client": []
        },
        "ads_service": {
          "status": 2
        }
      }
    }
  ],
  "configuration_version": "1"
}